scaffold,chromosome,length
Group1.1,1,1382403
Group1.2,1,890726
Group1.3,1,797889
Group1.4,1,319845
Group1.5,1,606820
Group1.6,1,188607
Group1.7,1,704741
Group1.8,1,367308
Group1.9,1,219847
Group1.10,1,1405242
Group1.11,1,2557
Group1.12,1,4728
Group1.13,1,5741
Group1.14,1,451513
Group1.15,1,1227296
Group1.16,1,731410
Group1.17,1,716596
Group1.18,1,166954
Group1.19,1,370959
Group1.20,1,48872
Group1.21,1,673331
Group1.22,1,682149
Group1.23,1,1527290
Group1.24,1,1962
Group1.25,1,449272
Group1.26,1,90960
Group1.27,1,417775
Group1.28,1,158922
Group1.29,1,1952552
Group1.30,1,232100
Group1.31,1,758083
Group1.32,1,697381
Group1.33,1,536125
Group1.34,1,850920
Group1.35,1,742644
Group1.36,1,213631
Group1.37,1,2349843
Group1.38,1,108724
Group1.39,1,125803
Group1.40,1,631561
Group1.41,1,1336706
Group1.42,1,1120978
Group1.43,1,1524642
Group2.1,2,129034
Group2.2,2,140176
Group2.3,2,368240
Group2.4,2,328018
Group2.5,2,311336
Group2.6,2,364313
Group2.7,2,1328269
Group2.8,2,115413
Group2.9,2,411797
Group2.10,2,1100
Group2.11,2,2061970
Group2.12,2,617777
Group2.13,2,332023
Group2.14,2,195287
Group2.15,2,1194135
Group2.16,2,1185
Group2.17,2,1519436
Group2.18,2,1291628
Group2.19,2,3883383
Group2.20,2,4747
Group3.1,3,520527
Group3.2,3,1468
Group3.3,3,721936
Group3.4,3,886550
Group3.5,3,898175
Group3.6,3,1521
Group3.7,3,586649
Group3.8,3,2218143
Group3.9,3,2515291
Group3.10,3,4222
Group3.11,3,3095
Group3.12,3,431878
Group3.13,3,3838
Group3.14,3,1234442
Group3.15,3,877448
Group3.16,3,878845
Group3.17,3,1698
Group3.18,3,430072
Group3.19,3,118543
Group4.1,4,494196
Group4.2,4,2481
Group4.3,4,251541
Group4.4,4,539690
Group4.5,4,1868461
Group4.6,4,1036027
Group4.7,4,380638
Group4.8,4,636382
Group4.9,4,2252272
Group4.10,4,297540
Group4.11,4,505744
Group4.12,4,316586
Group4.13,4,2452754
Group4.14,4,1432
Group4.15,4,1083
Group4.16,4,931507
Group5.1,5,538369
Group5.2,5,1670252
Group5.3,5,2218
Group5.4,5,350927
Group5.5,5,487594
Group5.6,5,118121
Group5.7,5,471528
Group5.8,5,753445
Group5.9,5,1741368
Group5.10,5,3035
Group5.11,5,733210
Group5.12,5,1195175
Group5.13,5,541176
Group5.14,5,2810164
Group5.15,5,301006
Group5.16,5,129462
Group5.17,5,1401
Group5.18,5,875206
Group5.19,5,1001
Group5.20,5,688614
Group6.1,6,792224
Group6.2,6,601795
Group6.3,6,3395
Group6.4,6,1902
Group6.5,6,2437
Group6.6,6,143107
Group6.7,6,351070
Group6.8,6,95385
Group6.9,6,374254
Group6.10,6,497625
Group6.11,6,103332
Group6.12,6,309087
Group6.13,6,214526
Group6.14,6,926414
Group6.15,6,1255685
Group6.16,6,1206188
Group6.17,6,3060
Group6.18,6,264147
Group6.19,6,1436
Group6.20,6,2024829
Group6.21,6,1337
Group6.22,6,57116
Group6.23,6,1557579
Group6.24,6,100753
Group6.25,6,11208
Group6.26,6,609923
Group6.27,6,1186
Group6.28,6,803170
Group6.29,6,1198
Group6.30,6,377210
Group6.31,6,288412
Group6.32,6,1066013
Group6.33,6,2665
Group6.34,6,2993
Group6.35,6,1410
Group6.36,6,412425
Group6.37,6,1322482
Group6.38,6,833959
Group7.1,7,154458
Group7.2,7,174607
Group7.3,7,235147
Group7.4,7,4615
Group7.5,7,764393
Group7.6,7,351818
Group7.7,7,283291
Group7.8,7,3944
Group7.9,7,670825
Group7.10,7,721686
Group7.11,7,2387
Group7.12,7,467696
Group7.13,7,157919
Group7.14,7,142312
Group7.15,7,296707
Group7.16,7,136857
Group7.17,7,1089886
Group7.18,7,562811
Group7.19,7,553347
Group7.20,7,540293
Group7.21,7,2207684
Group7.22,7,1269988
Group7.23,7,3225
Group7.24,7,1273449
Group8.1,8,577322
Group8.2,8,226759
Group8.3,8,516453
Group8.4,8,217109
Group8.5,8,433883
Group8.6,8,1922192
Group8.7,8,1987703
Group8.8,8,1011691
Group8.9,8,1618226
Group8.10,8,969
Group8.11,8,527723
Group8.12,8,305685
Group8.13,8,469123
Group8.14,8,580575
Group8.15,8,127237
Group8.16,8,173087
Group8.17,8,889749
Group8.18,8,3521
Group8.19,8,3420
Group8.20,8,1527
Group8.21,8,952590
Group9.1,9,288952
Group9.2,9,456766
Group9.3,9,323336
Group9.4,9,454171
Group9.5,9,604555
Group9.6,9,1493
Group9.7,9,1043420
Group9.8,9,792318
Group9.9,9,4957
Group9.10,9,4726012
Group9.11,9,3416
Group9.12,9,1871057
Group10.1,10,283798
Group10.2,10,136026
Group10.3,10,243387
Group10.4,10,101155
Group10.5,10,157841
Group10.6,10,196055
Group10.7,10,121941
Group10.8,10,256518
Group10.9,10,182427
Group10.10,10,356357
Group10.11,10,251959
Group10.12,10,110863
Group10.13,10,276731
Group10.14,10,208563
Group10.15,10,243982
Group10.16,10,146682
Group10.17,10,414500
Group10.18,10,178827
Group10.19,10,138830
Group10.20,10,222229
Group10.21,10,295482
Group10.22,10,141147
Group10.23,10,1426482
Group10.24,10,1048440
Group10.25,10,436920
Group10.26,10,2742943
Group10.27,10,802473
Group10.28,10,441927
Group10.29,10,1468
Group11.1,11,656574
Group11.2,11,2729
Group11.3,11,616190
Group11.4,11,75085
Group11.5,11,143483
Group11.6,11,1566327
Group11.7,11,2700
Group11.8,11,436688
Group11.9,11,676425
Group11.10,11,2864
Group11.11,11,317980
Group11.12,11,874861
Group11.13,11,220879
Group11.14,11,673851
Group11.15,11,221430
Group11.16,11,1564475
Group11.17,11,2079
Group11.18,11,4736299
Group11.19,11,3196
Group11.20,11,982441
Group12.1,12,7332
Group12.2,12,2823
Group12.3,12,634101
Group12.4,12,178837
Group12.5,12,659595
Group12.6,12,307788
Group12.7,12,990
Group12.8,12,1208949
Group12.9,12,367523
Group12.10,12,149142
Group12.11,12,704737
Group12.12,12,962
Group12.13,12,2883042
Group12.14,12,2656
Group12.15,12,130049
Group12.16,12,997192
Group12.17,12,2866936
Group13.1,13,133627
Group13.2,13,353572
Group13.3,13,786567
Group13.4,13,729917
Group13.5,13,646478
Group13.6,13,313006
Group13.7,13,2277954
Group13.8,13,1823
Group13.9,13,615200
Group13.10,13,1157304
Group13.11,13,3959
Group13.12,13,2032061
Group13.13,13,1409
Group13.14,13,225565
Group13.15,13,310057
Group14.1,14,872363
Group14.2,14,100392
Group14.3,14,353946
Group14.4,14,3357
Group14.5,14,535149
Group14.6,14,1448
Group14.7,14,456449
Group14.8,14,480595
Group14.9,14,1632479
Group14.10,14,842959
Group14.11,14,6275
Group14.12,14,1588
Group14.13,14,1576258
Group14.14,14,1130295
Group14.15,14,1560102
Group15.1,15,1130
Group15.2,15,517351
Group15.3,15,284689
Group15.4,15,6204
Group15.5,15,556506
Group15.6,15,121753
Group15.7,15,3366
Group15.8,15,156747
Group15.9,15,337943
Group15.10,15,418334
Group15.11,15,438282
Group15.12,15,5903
Group15.13,15,480912
Group15.14,15,1411413
Group15.15,15,1508
Group15.16,15,361869
Group15.17,15,3861
Group15.18,15,2728
Group15.19,15,3997324
Group15.20,15,3785
Group15.21,15,4249
Group15.22,15,1372
Group16.1,16,391522
Group16.2,16,1659631
Group16.3,16,5172
Group16.4,16,1927730
Group16.5,16,808006
Group16.6,16,778741
Group16.7,16,3723
Group16.8,16,1230552
Group16.9,16,2088
